Language,Dataset,Sentences,Tokens,Domain
Indonesian,`UD-ID-GSD <https://github.com/UniversalDependencies/UD_Indonesian-GSD>`_,5593,120581,"News, Blog"
,`UD-ID-CSUI <https://github.com/UniversalDependencies/UD_Indonesian-CSUI>`_,1030,28117,News
,`UD-ID-PUD <https://github.com/UniversalDependencies/UD_Indonesian-PUD>`_,1000,19032,"News, Wiki"
Thai,`UD-TH-PUD <https://github.com/UniversalDependencies/UD_Thai-PUD>`_,1000,22322,"News, Wiki"
Vietnamese,`UD-VI-VTB <https://github.com/UniversalDependencies/UD_Vietnamese-VTB>`_,3000,43754,News