Argument,Details,Options
model_name,Name of model architecture to use,``bi-lstm``/ ``bi-lstm-crf``/ Huggingface transformer name (e.g. ``xlm-roberta-base``)
use_pretrained,"If using pre-trained model from Huggingface, set this to ``true``",``true``/ ``false``
freeze,Whether to freeze pre-trained model's parameters when training,``true``/ ``false``
embedding_dim,No. of dimensions to use for word embeddings (if not using pre-trained model),Integer
hidden_dim,No. of dimensions to use for Bi-LSTM's hidden state,Integer
num_epochs,No. of epochs to train for,Integer
batch_size,Batch size for training,Integer
patience,Early stopping patience,Integer
lr,Learning rate,Float (``1e-5`` is acceptable)