Language,Name,Architecture,Test Dataset,F1 (%)
**Indonesian**,`Trankit* <https://github.com/nlp-uoregon/trankit>`_,SentencePiece + FFNN (XLM-R Large),`UD-ID-GSD <https://github.com/UniversalDependencies/UD_Indonesian-GSD>`_,**95.54**
,`Stanza <https://github.com/stanfordnlp/stanza>`_,1D-CNN + Bi-LSTM,`UD-ID-GSD <https://github.com/UniversalDependencies/UD_Indonesian-GSD>`_,93.78
,`Malaya <https://github.com/huseinzol05/malaya>`_,Regex,?,?
**Thai**,`PyThaiNLP <https://github.com/PyThaiNLP/pythainlp>`_,CRFCut (CRF trained on TED dataset),ORCHID,**87** [#f1]_
**Vietnamese**,`Trankit* <https://github.com/nlp-uoregon/trankit>`_,SentencePiece + FFNN (XLM-R Large),`UD-VI-VTB <https://github.com/UniversalDependencies/UD_Vietnamese-VTB>`_,**96.63**
,`Stanza <https://github.com/stanfordnlp/stanza>`_,1D-CNN + Bi-LSTM,`UD-VI-VTB <https://github.com/UniversalDependencies/UD_Vietnamese-VTB>`_,93.15
,`UnderTheSea <https://github.com/undertheseanlp/underthesea>`_,?,?,?